{
  "mensaje": "Operacion exitosa",
  "folio": "216B64FC5FAF4646BDF6548F9BCCB9A3",
  "resultado": {
    "categorias": [
      {
        "id": 1,
        "nombre": "Despensa",
        "tipo": "CATEGORY",
        "codigo": "TN01",
        "activo": true,
        "nombreImagen": "imagen.png",
        "disponible": true,
        "ruta": "Neto_department/TN13",
        "nivel": 0,
        "subcategorias": [
          {
            "id": 1,
            "nombre": "Arroz, frijol, y otros granos",
            "tipo": "CATEGORY",
            "codigo": "SCTN2",
            "activo": true,
            "disponible": true,
            "ruta": "Neto_department/TN13/SCTN46",
            "nivel": 1
          }
        ]
      }
    ],
    "paginacion": {
      "totalPaginas": 10,
      "totalRegistrosPorPagina": 10,
      "totalRegistros": 100,
      "pagina": 1
    }
  }
}