{
  "codigo": "500.Superapp-Neto-Carrito-Compras-Gestion-Productos.1005",
  "mensaje": "Problema interno en el servidor, favor de validar.",
  "folio": "216B64FC5FAF4646BDF6548F9BCCB9A3",
  "info": "https://dev-api.bancoazteca.com.mx/info#500.Superapp-Neto-Carrito-Compras-Gestion-Productos.1005",
  "detalles": [
    "Problema interno en el servidor."
  ]
}