{
  "mensaje": "Operacion exitosa",
  "folio": "216B64FC5FAF4646BDF6548F9BCCB9A3",
  "resultado": {
    "etiquetas": [
      {
        "id": 4674583848737463,
        "codigo": "sugarfree",
        "nombre": "Sugar Free",
        "colorFondo": "#7BE523",
        "colorTexto": "#7BE523",
        "aplicarFiltro": true,
        "activo": true,
        "descripcion": "Solo para productos sin azucar"
      }
    ],
    "paginacion": {
      "totalPaginas": 10,
      "totalRegistrosPorPagina": 10,
      "totalRegistros": 100,
      "pagina": 1
    }
  }
}